%YAML 1.1
%TAG !u! tag:unity3d.com,2011:
--- !u!1045 &1
EditorBuildSettings:
  m_ObjectHideFlags: 0
  serializedVersion: 2
  m_Scenes:
  - enabled: 1
    path: Assets/GGJ2019/Embed/Bootstrap.unity
    guid: f1c163d8e93ed4001b9331d28c6726bb
  - enabled: 1
    path: Assets/GGJ2019/Scenes/Game/Game.unity
    guid: 40a5594b8b8a64fb79c4bdfb9debe730
  - enabled: 1
    path: Assets/GGJ2019/Scenes/Book/Book.unity
    guid: 0078544b6a1c142f1914046533e298ea
  - enabled: 1
    path: Assets/GGJ2019/Scenes/Ending/Ending.unity
    guid: a4a4bfe3335194b7eab69a876fee08a3
  m_configObjects: {}
